{
  "apiURL": "https://api-invest.tinkoff.ru/openapi/sandbox",
  "socketURL": "wss://api-invest.tinkoff.ru/openapi/md/v1/md-openapi/ws",
  "token":"t.RbHiUji-AUfaNPFLrnYEpX6wsPAraqQmEyfGLkOiTSqMI2mnPpg74e5NXnEgOks34oWOb1cHziWx4F3rheKuhg"
}